{
    "response_action": "update",
    "view": {
        "type": "modal",
        "title": {
            "type": "plain_text",
            "text": "Access request completed",
            "emoji": true
        },
        "close": {
            "type": "plain_text",
            "text": "Close",
            "emoji": true
        },
        "blocks": [
            {
                "type": "section",
                "text": {
                    "type": "mrkdwn",
                    "text": "You have requested *{{AccessRequest.Application.Name}}* access."
                }
            },
            {
                "type": "divider"
            },
            {{#ApprovalRequired}}
            {
                "type": "section",
                "text": {
                    "type": "mrkdwn",
                    "text": "This request requires approval. Approval requests have been sent to: {{#Approvers}}@{{.}} {{/Approvers}}"
                }
            },
            {{/ApprovalRequired}}
            {{^ApprovalRequired}}
            {
                "type": "section",
                "text": {
                    "type": "mrkdwn",
                    "text": "Provisioning requests have been sent to: {{#Owners}}@{{.}} {{/Owners}}"
                }
            },
            {{/ApprovalRequired}}
            {
                "type": "context",
                "elements": [
                    {
                        "type": "mrkdwn",
                        "text": "*Request id:* {{AccessRequest.ID}}"
                    }
                ]
            },
            {
                "type": "context",
                "elements": [
                    {
                        "type": "mrkdwn",
                        "text": "*Request submitted:* {{AccessRequest.RequestedAt}}"
                    }
                ]
            }
        ]
    }
}