[
    {
        "type": "section",
        "text": {
            "type": "mrkdwn",
            "text": "@{{Approver}} has {{#IsApproved}}approved{{/IsApproved}}{{^IsApproved}}denied{{/IsApproved}} @{{Requestor}}'s request for access to *{{AccessRequest.Application.Name}}*."
        }
    },
    {
        "type": "divider"
    },
    {{#IsApproved}}
    {
        "type": "section",
        "text": {
            "type": "mrkdwn",
            "text": "Provisioning requests have now been sent to: {{#Owners}}@{{.}} {{/Owners}}"
        }
    },
    {{/IsApproved}}
    {
        "type": "context",
        "elements": [
            {
                "type": "mrkdwn",
                "text": "*Request id:* {{AccessRequest.ID}}"
            }
        ]
    },
    {
        "type": "context",
        "elements": [
            {
                "type": "mrkdwn",
                "text": "*Request submitted:* {{AccessRequest.RequestedAt}}"
            }
        ]
    },
    {
        "type": "context",
        "elements": [
            {
                "type": "mrkdwn",
                "text": "*Approval {{#IsApproved}}granted{{/IsApproved}}{{^IsApproved}}declined{{/IsApproved}} at:* {{Approval.ReceivedAt}}"
            }
        ]
    }
]